        srv.echo("""              GOO-BYE EVERYONE
                                          ______
                   ,-~   _  ^^~-.,
                 ,^        -,____ ^,         ,/\/\/\,
                /           (____)  |      S~        ~7
               ;  .---._    | | || _|     S  I AM THE  Z
               | |      ~-.,\ | |!/ |     /_   LAW!   _\ 
               ( |    ~<-.,_^\|_7^ ,|     _//_      _\
               | |      ", 77>   (T/|   _/'   \/\/\/
               |  \_      )/<,/^\)i(|
               (    ^~-,  |________||
               ^!,_    / /, ,'^~^',!!_,..---.
                \_ "-./ /   (-~^~-))' =,__,..>-,
                  ^-,__/#w,_  '^' /~-,_/^\      )
               /\  ( <_    ^~~--T^ ~=, \  \_,-=~^\
  .-==,    _,=^_,.-"_  ^~*.(_  /_)    \ \,=\      )
 /-~;  \,-~ .-~  _,/ \    ___[8]_      \ T_),--~^^)
   _/   \,,..==~^_,.=,\   _.-~O   ~     \_\_\_,.-=}
 ,{       _,.-<~^\  \ \\      ()  .=~^^~=. \_\_,./
,{ ^T^ _ /  \  \  \  \ \)    [|   \oDREDD >
  ^T~ ^ { \  \ _\.-|=-T~\\    () ()\<||>,' )
   +     \ |=~T  !       Y    [|()  \ ,'  / -naughty
                    """) #END MESSAGE